200417-04:50:11 [INFO] -- 
200417-04:50:11 [INFO] -- 
200417-04:50:11 [INFO] -- ============================================================
200417-04:50:11 [INFO] -- PCSStarter: Application Starting...
200417-04:50:11 [FINE] -- PCSStarter: registering timer
200417-04:50:11 [FINE] -- timer: created!
200417-04:50:11 [FINE] -- PCSStarter: registering PCSCore
200417-04:50:11 [FINE] -- PCSCore: created!
200417-04:50:11 [FINE] -- PCSStarter: registering GateHandler
200417-04:50:11 [FINE] -- GateHandler: created!
200417-04:50:11 [FINE] -- PCSStarter: registering CollectorHandler
200417-04:50:11 [FINE] -- CollectorHandler: created!
200417-04:50:11 [INFO] -- timer: starting...
200417-04:50:11 [INFO] -- CollectorHandler: starting...
200417-04:50:11 [INFO] -- GateHandler: starting...
200417-04:50:11 [INFO] -- PCSCore: starting...
200417-04:50:16 [FINE] -- PCSCore: message received: [Timer (TimesUp) -- TimesUp 00002 0].
200417-04:50:16 [INFO] -- ------------------------------------------------------------
200417-04:50:16 [INFO] -- PCSCore: Open the gate now (for demo only!!!)
200417-04:50:16 [FINE] -- GateHandler: message received: [PCSCore (GateOpenRequest) -- ].
200417-04:50:16 [INFO] -- GateHandler: gate open request received
200417-04:50:16 [INFO] -- GateHandler: send signal to open the gate now.
200417-04:50:21 [FINE] -- PCSCore: message received: [Timer (TimesUp) -- TimesUp 00002 0].
200417-04:50:21 [INFO] -- ------------------------------------------------------------
200417-04:50:21 [INFO] -- PCSCore: Open the gate now (for demo only!!!)
